…
To coerce a data frame to *tsibble*, we need to declare key and index.
For example, in the `weather` data from the package `nycflights13`, the
`time_hour` containing the date-times should be declared as **index**,
and the `origin` as **key**. Other columns can be considered as measured
variables.

``` r
library(dplyr)
library(tsibble)
weather <- nycflights13::weather %>% 
  select(origin, time_hour, temp, humid, precip)
weather_tsbl <- as_tsibble(weather, key = origin, index = time_hour)
weather_tsbl
#> # A tsibble: 26,115 x 5 [1h] <America/New_York>
#> # Key:       origin [3]
#>   origin time_hour            temp humid precip
#>   <chr>  <dttm>              <dbl> <dbl>  <dbl>
#> 1 EWR    2013-01-01 01:00:00  39.0  59.4      0
#> 2 EWR    2013-01-01 02:00:00  39.0  61.6      0
#> 3 EWR    2013-01-01 03:00:00  39.0  64.4      0
#> 4 EWR    2013-01-01 04:00:00  39.9  62.2      0
#> 5 EWR    2013-01-01 05:00:00  39.0  64.4      0
#> # ℹ 26,110 more rows
```
…
``` r
full_weather <- weather_tsbl %>%
  fill_gaps(precip = 0) %>% 
  group_by_key() %>% 
  tidyr::fill(temp, humid, .direction = "down")
full_weather
#> # A tsibble: 26,190 x 5 [1h] <America/New_York>
#> # Key:       origin [3]
#> # Groups:    origin [3]
#>   origin time_hour            temp humid precip
#>   <chr>  <dttm>              <dbl> <dbl>  <dbl>
#> 1 EWR    2013-01-01 01:00:00  39.0  59.4      0
#> 2 EWR    2013-01-01 02:00:00  39.0  61.6      0
#> 3 EWR    2013-01-01 03:00:00  39.0  64.4      0
#> 4 EWR    2013-01-01 04:00:00  39.9  62.2      0
#> 5 EWR    2013-01-01 05:00:00  39.0  64.4      0
#> # ℹ 26,185 more rows
```
…
``` r
full_weather %>%
  group_by_key() %>%
  index_by(year_month = ~ yearmonth(.)) %>% # monthly aggregates
  summarise(
    avg_temp = mean(temp, na.rm = TRUE),
    ttl_precip = sum(precip, na.rm = TRUE)
  )
#> # A tsibble: 36 x 4 [1M]
#> # Key:       origin [3]
#>   origin year_month avg_temp ttl_precip
#>   <chr>       <mth>    <dbl>      <dbl>
#> 1 EWR      2013 Jan     35.6       3.53
#> 2 EWR      2013 Feb     34.2       3.83
#> 3 EWR      2013 Mar     40.1       3   
#> 4 EWR      2013 Apr     53.0       1.47
#> 5 EWR      2013 May     63.3       5.44
#> # ℹ 31 more rows
```
…
