…
The common *dplyr* verbs, such as `summarise()`, `mutate()`, `select()`, `filter()`, and `arrange()`, work with the tsibble.

-   `tsummarise()` to summarise over calendar periods

We have a new verb `tsummarise()` to aggregate interested variables over calendar periods.

``` r
weather_ts %>%
  group_by(origin) %>%
  tsummarise(
    year_month = yearmth(time_hour), # monthly aggregates
    avg_temp = mean(temp, na.rm = TRUE),
    ttl_precip = sum(precip, na.rm = TRUE)
  )
#> # A tsibble: 36 x 4 [1MONTH]
#> # Keys:      origin
#> # Groups:    origin
#>   origin year_month avg_temp ttl_precip
#> *  <chr>      <mth>    <dbl>      <dbl>
#> 1    EWR   2013 Jan 35.45787       2.70
#> 2    EWR   2013 Feb 34.09193       2.76
#> 3    EWR   2013 Mar 39.98992       1.92
#> 4    EWR   2013 Apr 52.75792       1.07
#> 5    EWR   2013 May 62.75508       2.76
#> # ... with 31 more rows
```
…
