…
fill_na() also handles filling NA by values or functions, and preserves time zones for date-times. Wanna a quick overview of implicit time gaps? Check out count_gaps().

index_by() + summarise() to aggregate over calendar periods

index_by() is the counterpart of group_by() in temporal context, but it groups the index only. In conjunction with index_by(), summarise() and its scoped variants aggregate interested variables over calendar periods. index_by() goes hand in hand with the index functions including as.Date(), yearweek(), yearmonth(), and yearquarter(), as well as other friends from lubridate. For example, it would be of interest in computing average temperature and total precipitation per month, by applying yearmonth() to the hourly time index.

full_weather %>%
  group_by(origin) %>%
  index_by(year_month = yearmonth(time_hour)) %>% # monthly aggregates
  summarise(
    avg_temp = mean(temp, na.rm = TRUE),
    ttl_precip = sum(precip, na.rm = TRUE)
  )
#> # A tsibble: 36 x 4 [1MONTH]
#> # Keys:      origin [3]
#>   origin year_month avg_temp ttl_precip
#>   <chr>       <mth>    <dbl>      <dbl>
#> 1 EWR      2013 Jan     35.6       2.7 
#> 2 EWR      2013 Feb     34.1       2.76
#> 3 EWR      2013 Mar     40.0       1.94
#> 4 EWR      2013 Apr     52.9       1.05
#> 5 EWR      2013 May     63.1       2.76
#> # ... with 31 more rows
…
