Tidy Temporal Data Frames and Tools • tsibble
…
fill_gaps() also handles filling in time gaps by values or functions, and respects time zones for date-times. Wanna a quick overview of implicit missing values? Check out vignette("implicit-na").

index_by() + summarise() to aggregate over calendar periods

index_by() is the counterpart of group_by() in temporal context, but it groups the index only. In conjunction with index_by(), summarise() and its scoped variants aggregate interested variables over calendar periods. index_by() goes hand in hand with the index functions including as.Date(), yearweek(), yearmonth(), and yearquarter(), as well as other friends from lubridate. For example, it would be of interest in computing average temperature and total precipitation per month, by applying yearmonth() to the index variable (referred to as .).

full_weather %>%
  group_by_key() %>%
  index_by(year_month = ~ yearmonth(.)) %>% # monthly aggregates
  summarise(
    avg_temp = mean(temp, na.rm = TRUE),
    ttl_precip = sum(precip, na.rm = TRUE)
  )
#> # A tsibble: 36 x 4 [1M]
#> # Key:       origin [3]
#>   origin year_month avg_temp ttl_precip
#>   <chr>       <mth>    <dbl>      <dbl>
#> 1 EWR      2013 Jan     35.6       3.53
#> 2 EWR      2013 Feb     34.2       3.83
#> 3 EWR      2013 Mar     40.1       3   
#> 4 EWR      2013 Apr     53.0       1.47
#> 5 EWR      2013 May     63.3       5.44
#> # … with 31 more rows
…
