Handle implicit missingness with tsibble • tsibble
…
  News

      Handle implicit missingness with tsibble

                        Earo Wang

      Source: vignettes/implicit-na.Rmd
      implicit-na.Rmd

Assuming you have set up a tsibble, you are ready for undertaking analysis in temporal context. Many time operations, such as lag and lead, assume an intact vector input ordered in time. To avoid inviting these errors into the analysis, it is a good practice to inspect any implicit missingness of the tsibble before analysis. A handful of tools are provided to understand and tackle missing values: (1) has_gaps() checks if there exists implicit missingness; (2) scan_gaps() reports all implicit missing entries; (3) count_gaps() summarises the time ranges that are absent from the data; (4) fill_gaps() turns them into explicit ones, along with imputing by values or functions. These functions have a common argument .full. If FALSE (default) looks into the time period for each key, otherwise the full-length time span. The pedestrian data contains hourly tallies of pedestrians at four counting sensors in 2015 and 2016 in inner Melbourne.

library(dplyr)
library(tsibble)
pedestrian
#> # A tsibble: 66,037 x 5 [1h] <Australia/Melbourne>
#> # Key:       Sensor [4]
#>   Sensor         Date_Time           Date        Time Count
#>   <chr>          <dttm>              <date>     <int> <int>
#> 1 Birrarung Marr 2015-01-01 00:00:00 2015-01-01     0  1630
#> 2 Birrarung Marr 2015-01-01 01:00:00 2015-01-01     1   826
#> 3 Birrarung Marr 2015-01-01 02:00:00 2015-01-01     2   567
#> 4 Birrarung Marr 2015-01-01 03:00:00 2015-01-01     3   264
#> 5 Birrarung Marr 2015-01-01 04:00:00 2015-01-01     4   139
#> # … with 66,032 more rows
…
We have learned if any missing periods and where, and we enlarge the tsibble to include explicit NA (previously as implicit missingness). The function fill_gaps() takes care of filling the key and index, and leaves other variables filled by the default NA. The pedestrian data initially contains 66037 and gets augmented to 70176.

ped_full <- pedestrian %>% 
  fill_gaps(.full = TRUE)
ped_full
#> # A tsibble: 70,176 x 5 [1h] <Australia/Melbourne>
#> # Key:       Sensor [4]
#>   Sensor         Date_Time           Date        Time Count
#>   <chr>          <dttm>              <date>     <int> <int>
#> 1 Birrarung Marr 2015-01-01 00:00:00 2015-01-01     0  1630
#> 2 Birrarung Marr 2015-01-01 01:00:00 2015-01-01     1   826
#> 3 Birrarung Marr 2015-01-01 02:00:00 2015-01-01     2   567
#> 4 Birrarung Marr 2015-01-01 03:00:00 2015-01-01     3   264
#> 5 Birrarung Marr 2015-01-01 04:00:00 2015-01-01     4   139
#> # … with 70,171 more rows
…
