…
``` r
library(dplyr)
library(tsibble)
pedestrian
#> # A tsibble: 66,037 x 5 [1h] <Australia/Melbourne>
#> # Key:       Sensor [4]
#>   Sensor         Date_Time           Date        Time Count
#>   <chr>          <dttm>              <date>     <int> <int>
#> 1 Birrarung Marr 2015-01-01 00:00:00 2015-01-01     0  1630
#> 2 Birrarung Marr 2015-01-01 01:00:00 2015-01-01     1   826
#> 3 Birrarung Marr 2015-01-01 02:00:00 2015-01-01     2   567
#> 4 Birrarung Marr 2015-01-01 03:00:00 2015-01-01     3   264
#> 5 Birrarung Marr 2015-01-01 04:00:00 2015-01-01     4   139
#> # ℹ 66,032 more rows
```
…
We have learned if any missing periods and where, and we enlarge the
tsibble to include explicit `NA` (previously as implicit missingness).
The function
[`fill_gaps()`](https://tsibble.tidyverts.org/dev/reference/fill_gaps.md)
takes care of filling the key and index, and leaves other variables
filled by the default `NA`. The `pedestrian` data initially contains
66037 and gets augmented to 70176.

``` r
ped_full <- pedestrian %>% 
  fill_gaps(.full = TRUE)
ped_full
#> # A tsibble: 70,176 x 5 [1h] <Australia/Melbourne>
#> # Key:       Sensor [4]
#>   Sensor         Date_Time           Date        Time Count
#>   <chr>          <dttm>              <date>     <int> <int>
#> 1 Birrarung Marr 2015-01-01 00:00:00 2015-01-01     0  1630
#> 2 Birrarung Marr 2015-01-01 01:00:00 2015-01-01     1   826
#> 3 Birrarung Marr 2015-01-01 02:00:00 2015-01-01     2   567
#> 4 Birrarung Marr 2015-01-01 03:00:00 2015-01-01     3   264
#> 5 Birrarung Marr 2015-01-01 04:00:00 2015-01-01     4   139
#> # ℹ 70,171 more rows
```
…
