Sliding window calculation over multiple inputs simultaneously — slide2 • tsibble
…
#>  9 b     NA    
#> 10 b      0.185
#> 11 b      0.529
#> 12 b      4.71 
#> 13 b      3.02 
#> 14 b      0.376
#> 15 b      2.65 
#> 16 b      2.01 
## window over 2 months
pedestrian %>%
  filter(Sensor == "Southern Cross Station") %>%
  index_by(yrmth = yearmonth(Date_Time)) %>%
  nest() %>%
  mutate(ma = slide_dbl(data, ~ mean(.$Count), .size = 2, .bind = TRUE))
#> # A tibble: 24 x 3
#>       yrmth data                   ma
#>       <mth> <list>              <dbl>
#>  1 2015 Jan <tsibble [744 × 5]>   NA 
#>  2 2015 Feb <tsibble [672 × 5]>  424.
#>  3 2015 Mar <tsibble [744 × 5]>  477.
#>  4 2015 Apr <tsibble [720 × 5]>  459.
#>  5 2015 May <tsibble [744 × 5]>  463.
#>  6 2015 Jun <tsibble [720 × 5]>  489.
#>  7 2015 Jul <tsibble [744 × 5]>  513.
#>  8 2015 Aug <tsibble [744 × 5]>  508.
#>  9 2015 Sep <tsibble [720 × 5]>  500.
#> 10 2015 Oct <tsibble [743 × 5]>  508.
#> # … with 14 more rows
…
