tsibble: tidy temporal data frames and tools — tsibble-package • tsibble
…
# create a tsibble with one key ----
tsibble(
  qtr = rep(yearquarter("2010-01") + 0:9, 3),
  group = rep(c("x", "y", "z"), each = 10),
  value = rnorm(30),
  key = group
)
#> Using `qtr` as index variable.
#> # A tsibble: 30 x 3 [1Q]
#> # Key:       group [3]
#>        qtr group  value
#>      <qtr> <chr>  <dbl>
#>  1 2010 Q1 x     -0.542
#>  2 2010 Q2 x     -1.45 
#>  3 2010 Q3 x      0.180
#>  4 2010 Q4 x      0.498
#>  5 2011 Q1 x     -1.29 
#>  6 2011 Q2 x      0.755
#>  7 2011 Q3 x     -0.267
#>  8 2011 Q4 x      0.642
#>  9 2012 Q1 x     -0.417
#> 10 2012 Q2 x     -1.22 
#> # ℹ 20 more rows
…
