Create a tsibble object — tsibble • tsibble
…
# create a tsibble with a single variable for key
tsibble(
  qtr = rep(yearquarter("2010 Q1") + 0:9, 3),
  group = rep(c("x", "y", "z"), each = 10),
  value = rnorm(30),
  key = group
)
#> Using `qtr` as index variable.
#> # A tsibble: 30 x 3 [1Q]
#> # Key:       group [3]
#>        qtr group   value
#>      <qtr> <chr>   <dbl>
#>  1 2010 Q1 x      0.550 
#>  2 2010 Q2 x     -0.660 
#>  3 2010 Q3 x      0.0574
#>  4 2010 Q4 x     -2.81  
#>  5 2011 Q1 x     -0.912 
#>  6 2011 Q2 x     -0.782 
#>  7 2011 Q3 x     -0.664 
#>  8 2011 Q4 x      0.626 
#>  9 2012 Q1 x     -0.507 
#> 10 2012 Q2 x      0.270 
#> # … with 20 more rows

# create a tsibble with multiple variables for key
tsibble(
  mth = rep(yearmonth("2010 Jan") + 0:8, each = 3),
  xyz = rep(c("x", "y", "z"), each = 9),
  abc = rep(letters[1:3], times = 9),
  value = rnorm(27),
  key = c(xyz, abc)
)
#> Using `mth` as index variable.
#> # A tsibble: 27 x 4 [1M]
#> # Key:       xyz, abc [9]
#>         mth xyz   abc    value
#>       <mth> <chr> <chr>  <dbl>
#>  1 2010 Jan x     a      0.259
#>  2 2010 Feb x     a     -0.334
#>  3 2010 Mar x     a      0.587
#>  4 2010 Jan x     b     -0.806
#>  5 2010 Feb x     b      1.64 
#>  6 2010 Mar x     b     -0.150
#>  7 2010 Jan x     c      0.106
#>  8 2010 Feb x     c     -0.644
#>  9 2010 Mar x     c     -1.71 
#> 10 2010 Apr y     a      1.43 
#> # … with 17 more rows

# create a tsibble containing "key" and "index" as column names
tsibble(!!!list(
  index = rep(yearquarter("2010 Q1") + 0:9, 3),
  key = rep(c("x", "y", "z"), each = 10),
  value = rnorm(30)),
  key = key, index = index
)
#> # A tsibble: 30 x 3 [1Q]
#> # Key:       key [3]
#>      index key    value
#>      <qtr> <chr>  <dbl>
#>  1 2010 Q1 x     -2.45 
#>  2 2010 Q2 x     -1.49 
#>  3 2010 Q3 x     -0.432
#>  4 2010 Q4 x     -0.943
#>  5 2011 Q1 x     -0.121
#>  6 2011 Q2 x      1.34 
#>  7 2011 Q3 x     -0.860
#>  8 2011 Q4 x      0.667
#>  9 2012 Q1 x     -1.42 
#> 10 2012 Q2 x      1.17 
#> # … with 20 more rows
…
