Tsibble-aware lag, lead, and difference operations — keyed_lag • tsibble
…
# take care of key and gaps
pedestrian %>%
  mutate(l_count = keyed_lag(Count))
#> # A tsibble: 66,037 x 6 [1h] <Australia/Melbourne>
#> # Key:       Sensor [4]
#>    Sensor         Date_Time           Date        Time Count l_count
#>    <chr>          <dttm>              <date>     <int> <int>   <int>
#>  1 Birrarung Marr 2015-01-01 00:00:00 2015-01-01     0  1630      NA
#>  2 Birrarung Marr 2015-01-01 01:00:00 2015-01-01     1   826    1630
#>  3 Birrarung Marr 2015-01-01 02:00:00 2015-01-01     2   567     826
#>  4 Birrarung Marr 2015-01-01 03:00:00 2015-01-01     3   264     567
#>  5 Birrarung Marr 2015-01-01 04:00:00 2015-01-01     4   139     264
#>  6 Birrarung Marr 2015-01-01 05:00:00 2015-01-01     5    77     139
#>  7 Birrarung Marr 2015-01-01 06:00:00 2015-01-01     6    44      77
#>  8 Birrarung Marr 2015-01-01 07:00:00 2015-01-01     7    56      44
#>  9 Birrarung Marr 2015-01-01 08:00:00 2015-01-01     8   113      56
#> 10 Birrarung Marr 2015-01-01 09:00:00 2015-01-01     9   166     113
#> # … with 66,027 more rows

# to replace the following chain
pedestrian %>%
  fill_gaps() %>%
  group_by_key() %>%
  mutate(l_count = lag(Count))
#> # A tsibble: 69,048 x 6 [1h] <Australia/Melbourne>
#> # Key:       Sensor [4]
#> # Groups:    Sensor [4]
#>    Sensor         Date_Time           Date        Time Count l_count
#>    <chr>          <dttm>              <date>     <int> <int>   <int>
#>  1 Birrarung Marr 2015-01-01 00:00:00 2015-01-01     0  1630      NA
#>  2 Birrarung Marr 2015-01-01 01:00:00 2015-01-01     1   826    1630
#>  3 Birrarung Marr 2015-01-01 02:00:00 2015-01-01     2   567     826
#>  4 Birrarung Marr 2015-01-01 03:00:00 2015-01-01     3   264     567
#>  5 Birrarung Marr 2015-01-01 04:00:00 2015-01-01     4   139     264
#>  6 Birrarung Marr 2015-01-01 05:00:00 2015-01-01     5    77     139
#>  7 Birrarung Marr 2015-01-01 06:00:00 2015-01-01     6    44      77
#>  8 Birrarung Marr 2015-01-01 07:00:00 2015-01-01     7    56      44
#>  9 Birrarung Marr 2015-01-01 08:00:00 2015-01-01     8   113      56
#> 10 Birrarung Marr 2015-01-01 09:00:00 2015-01-01     9   166     113
#> # … with 69,038 more rows
…
