…
## References

[Tourism Research Australia](https://www.tra.gov.au)

## Examples

``` r
library(dplyr)
data(tourism)
# Total trips over geographical regions
tourism %>%
  group_by(Region, State) %>%
  summarise(Total_Trips = sum(Trips))
#> # A tsibble: 6,080 x 4 [1Q]
#> # Key:       Region, State [76]
#> # Groups:    Region [76]
#>    Region   State           Quarter Total_Trips
#>    <chr>    <chr>             <qtr>       <dbl>
#>  1 Adelaide South Australia 1998 Q1        659.
#>  2 Adelaide South Australia 1998 Q2        450.
#>  3 Adelaide South Australia 1998 Q3        593.
#>  4 Adelaide South Australia 1998 Q4        524.
#>  5 Adelaide South Australia 1999 Q1        548.
#>  6 Adelaide South Australia 1999 Q2        569.
#>  7 Adelaide South Australia 1999 Q3        538.
#>  8 Adelaide South Australia 1999 Q4        562.
#>  9 Adelaide South Australia 2000 Q1        646.
#> 10 Adelaide South Australia 2000 Q2        563.
#> # ℹ 6,070 more rows
```
