Create a tsibble object — tsibble • tsibble
…
# create a tsibble with one key
tsibble(
  qtr = rep(yearquarter("201001") + 0:9, 3),
  group = rep(c("x", "y", "z"), each = 10),
  value = rnorm(30),
  key = group
)
#> Using `qtr` as index variable.
#> # A tsibble: 30 x 3 [1Q]
#> # Key:       group [3]
#>        qtr group   value
#>      <qtr> <chr>   <dbl>
#>  1 2010 Q1 x     -0.796 
#>  2 2010 Q2 x     -0.236 
#>  3 2010 Q3 x      1.19  
#>  4 2010 Q4 x      0.188 
#>  5 2011 Q1 x      1.04  
#>  6 2011 Q2 x     -0.450 
#>  7 2011 Q3 x     -0.709 
#>  8 2011 Q4 x      0.0304
#>  9 2012 Q1 x     -0.450 
#> 10 2012 Q2 x      0.671 
#> # … with 20 more rows
…
