…
## Join verbs

Joining with other data sources triggers the check on the validity of
the resulting tsibble.

## Examples

``` r
library(dplyr, warn.conflicts = FALSE)
# `summarise()` a tsibble always aggregates over time
# Sum over sensors
pedestrian %>%
  index_by() %>%
  summarise(Total = sum(Count))
#> # A tsibble: 17,542 x 2 [1h] <Australia/Melbourne>
#>    Date_Time           Total
#>    <dttm>              <int>
#>  1 2015-01-01 00:00:00  2866
#>  2 2015-01-01 01:00:00  1535
#>  3 2015-01-01 02:00:00   994
#>  4 2015-01-01 03:00:00   569
#>  5 2015-01-01 04:00:00   311
#>  6 2015-01-01 05:00:00   159
#>  7 2015-01-01 06:00:00   129
#>  8 2015-01-01 07:00:00   146
#>  9 2015-01-01 08:00:00   258
#> 10 2015-01-01 09:00:00   419
#> # ℹ 17,532 more rows
# shortcut
pedestrian %>%
  summarise(Total = sum(Count))
#> # A tsibble: 17,542 x 2 [1h] <Australia/Melbourne>
#>    Date_Time           Total
#>    <dttm>              <int>
#>  1 2015-01-01 00:00:00  2866
#>  2 2015-01-01 01:00:00  1535
#>  3 2015-01-01 02:00:00   994
#>  4 2015-01-01 03:00:00   569
#>  5 2015-01-01 04:00:00   311
#>  6 2015-01-01 05:00:00   159
#>  7 2015-01-01 06:00:00   129
#>  8 2015-01-01 07:00:00   146
#>  9 2015-01-01 08:00:00   258
#> 10 2015-01-01 09:00:00   419
#> # ℹ 17,532 more rows
…
library(tidyr)
stocks <- tsibble(
  time = as.Date("2009-01-01") + 0:9,
  X = rnorm(10, 0, 1),
  Y = rnorm(10, 0, 2),
  Z = rnorm(10, 0, 4)
)
#> Using `time` as index variable.
(stocksm <- stocks %>%
  pivot_longer(-time, names_to = "stock", values_to = "price"))
#> # A tsibble: 30 x 3 [1D]
#> # Key:       stock [3]
#>    time       stock   price
#>    <date>     <chr>   <dbl>
#>  1 2009-01-01 X      1.04  
#>  2 2009-01-01 Y     -1.73  
#>  3 2009-01-01 Z      3.62  
#>  4 2009-01-02 X     -0.450 
#>  5 2009-01-02 Y      4.87  
#>  6 2009-01-02 Z      4.81  
#>  7 2009-01-03 X     -0.709 
#>  8 2009-01-03 Y      0.0877
#>  9 2009-01-03 Z      4.72  
#> 10 2009-01-04 X      0.0304
#> # ℹ 20 more rows
…
