tsibble: tidy temporal data frames and tools — tsibble-package • tsibble
…
# create a tsibble with one key ----
tsibble(
  qtr = rep(yearquarter("2010-01") + 0:9, 3),
  group = rep(c("x", "y", "z"), each = 10),
  value = rnorm(30),
  key = group
)
#> Using `qtr` as index variable.
#> # A tsibble: 30 x 3 [1Q]
#> # Key:       group [3]
#>        qtr group  value
#>      <qtr> <chr>  <dbl>
#>  1 2010 Q1 x     -0.356
#>  2 2010 Q2 x      1.15 
#>  3 2010 Q3 x     -0.221
#>  4 2010 Q4 x      1.02 
#>  5 2011 Q1 x     -0.264
#>  6 2011 Q2 x      1.66 
#>  7 2011 Q3 x     -0.774
#>  8 2011 Q4 x     -0.924
#>  9 2012 Q1 x     -0.276
#> 10 2012 Q2 x     -0.593
#> # … with 20 more rows
…
