…
# create a tsibble with one key ----
tsibble(
  qtr = rep(yearquarter("2010-01") + 0:9, 3),
  group = rep(c("x", "y", "z"), each = 10),
  value = rnorm(30),
  key = group
)
#> Using `qtr` as index variable.
#> # A tsibble: 30 x 3 [1Q]
#> # Key:       group [3]
#>        qtr group   value
#>      <qtr> <chr>   <dbl>
#>  1 2010 Q1 x     -0.536 
#>  2 2010 Q2 x     -0.0840
#>  3 2010 Q3 x     -2.01  
#>  4 2010 Q4 x     -0.513 
#>  5 2011 Q1 x      0.102 
#>  6 2011 Q2 x     -0.0562
#>  7 2011 Q3 x     -2.43  
#>  8 2011 Q4 x     -0.626 
#>  9 2012 Q1 x     -0.876 
#> 10 2012 Q2 x      0.286 
#> # ℹ 20 more rows
```
