…
# create a tsibble with a single variable for key
tsibble(
  qtr = rep(yearquarter("2010 Q1") + 0:9, 3),
  group = rep(c("x", "y", "z"), each = 10),
  value = rnorm(30),
  key = group
)
#> Using `qtr` as index variable.
#> # A tsibble: 30 x 3 [1Q]
#> # Key:       group [3]
#>        qtr group   value
#>      <qtr> <chr>   <dbl>
#>  1 2010 Q1 x      1.22  
#>  2 2010 Q2 x     -0.442 
#>  3 2010 Q3 x      0.746 
#>  4 2010 Q4 x      0.213 
#>  5 2011 Q1 x     -1.33  
#>  6 2011 Q2 x      1.67  
#>  7 2011 Q3 x     -0.126 
#>  8 2011 Q4 x     -2.08  
#>  9 2012 Q1 x      1.67  
#> 10 2012 Q2 x      0.0101
#> # ℹ 20 more rows

# create a tsibble with multiple variables for key
tsibble(
  mth = rep(yearmonth("2010 Jan") + 0:8, each = 3),
  xyz = rep(c("x", "y", "z"), each = 9),
  abc = rep(letters[1:3], times = 9),
  value = rnorm(27),
  key = c(xyz, abc)
)
#> Using `mth` as index variable.
#> # A tsibble: 27 x 4 [1M]
#> # Key:       xyz, abc [9]
#>         mth xyz   abc     value
#>       <mth> <chr> <chr>   <dbl>
#>  1 2010 Jan x     a     -0.387 
#>  2 2010 Feb x     a     -0.0651
#>  3 2010 Mar x     a     -0.555 
#>  4 2010 Jan x     b      0.0726
#>  5 2010 Feb x     b      0.837 
#>  6 2010 Mar x     b      1.40  
#>  7 2010 Jan x     c     -0.383 
#>  8 2010 Feb x     c      1.34  
#>  9 2010 Mar x     c      0.444 
#> 10 2010 Apr y     a      0.169 
#> # ℹ 17 more rows

# create a tsibble containing "key" and "index" as column names
tsibble(!!!list(
  index = rep(yearquarter("2010 Q1") + 0:9, 3),
  key = rep(c("x", "y", "z"), each = 10),
  value = rnorm(30)),
  key = key, index = index
)
#> # A tsibble: 30 x 3 [1Q]
#> # Key:       key [3]
#>      index key     value
#>      <qtr> <chr>   <dbl>
#>  1 2010 Q1 x      0.270 
#>  2 2010 Q2 x     -0.857 
#>  3 2010 Q3 x      1.56  
#>  4 2010 Q4 x     -1.09  
#>  5 2011 Q1 x     -0.0259
#>  6 2011 Q2 x     -1.51  
#>  7 2011 Q3 x     -0.307 
#>  8 2011 Q4 x     -1.88  
#>  9 2012 Q1 x      0.466 
#> 10 2012 Q2 x      0.384 
#> # ℹ 20 more rows
```
