Temporal Data Frames and Tools • tsibble
…
The key is not constrained to a single variable, but expressive of nested and crossed data structures. See ?tsibble and vignette("intro-tsibble") for details.

tsummarise() to summarise over calendar periods

A new verb tsummarise() is here to aggregate interested variables over calendar periods. The tsummarise goes hand in hand with the index functions including as.Date(), yearmth(), and yearqtr(), as well as other friends from lubridate, such as year() and ceiling_date(). For example, it would be of interest in computing average temperature and total precipitation per month, by applying the yearmth() to the hourly time index.

weather_tsbl %>%
  group_by(origin) %>%
  tsummarise(
    year_month = yearmth(time_hour), # monthly aggregates
    avg_temp = mean(temp, na.rm = TRUE),
    ttl_precip = sum(precip, na.rm = TRUE)
  )
#> # A tsibble: 36 x 4 [1MONTH]
#> # Keys:      origin
#> # Groups:    origin
#>   origin year_month avg_temp ttl_precip
#> *  <chr>      <mth>    <dbl>      <dbl>
#> 1    EWR   2013 Jan 35.45787       2.70
#> 2    EWR   2013 Feb 34.09193       2.76
#> 3    EWR   2013 Mar 39.98992       1.92
#> 4    EWR   2013 Apr 52.75792       1.07
#> 5    EWR   2013 May 62.75508       2.76
#> # ... with 31 more rows
…
