Introduction to tsibble • tsibble
…
library(hms)
air_time <- nycflights13::flights %>%
  filter(year == 2013, month == 1, day == 1) %>%
  select(origin, dest, flight, air_time, distance) %>%
  mutate(air_time = hms(minutes = air_time))
air_time_tsbl <- air_time %>%
  as_tsibble(air_time, origin, dest, flight, index = air_time, regular = FALSE)
air_time_tsbl

## # A tsibble: 842 x 5 [!]
## # Keys:      air_time, origin, dest, flight
##   origin  dest flight air_time distance
## *  <chr> <chr>  <int>   <time>    <dbl>
## 1    EWR   IAH   1545 03:47:00     1400
## 2    LGA   IAH   1714 03:47:00     1416
## 3    JFK   MIA   1141 02:40:00     1089
## 4    JFK   BQN    725 03:03:00     1576
## 5    LGA   ATL    461 01:56:00      762
## # ... with 837 more rows
…
