A family of window functions • tsibble
…
To make this even-order moving average symmetric, a second moving average with .size = 2 should be applied to Daily_MA.

Flexible calendar period

What if the time period we’d like to slide over happens not to be a fixed window size, for example sliding over three months. The preprocessing step is to wrap observations into monthly subsets (a list of tsibbles) using nest().

pedestrian_mth <- pedestrian_full %>% 
  mutate(YrMth = yearmonth(Date_Time)) %>% 
  nest(-Sensor, -YrMth)
pedestrian_mth
#> # A tibble: 96 x 3
#>   Sensor            YrMth data               
#>   <chr>             <mth> <list>             
#> 1 Birrarung Marr 2015 Jan <tsibble [744 × 4]>
#> 2 Birrarung Marr 2015 Feb <tsibble [672 × 4]>
#> 3 Birrarung Marr 2015 Mar <tsibble [744 × 4]>
#> 4 Birrarung Marr 2015 Apr <tsibble [721 × 4]>
#> 5 Birrarung Marr 2015 May <tsibble [744 × 4]>
#> # … with 91 more rows

Now it’s ready to (rock and) roll. When setting .size = 1 in slide(), it behaves exactly the same as purrr::map(), mapping over each element in the object. However, (1) a bundle of 3 subsets (.size = 3) needs to be binded first and then computed for average counts; (2) alternatively, .bind = TRUE takes care of binding data frames by row. The nicely-glued simple operations facilitate complex tasks in an easier-to-comprehend manner.

pedestrian_mth %>% 
  group_by(Sensor) %>% 
  # (1)
  # mutate(Monthly_MA = slide_dbl(data, 
  #   ~ mean(bind_rows(.)$Count, na.rm = TRUE), .size = 3, .align = "center"
  # ))
  # (2) equivalent to (1)
  mutate(Monthly_MA = slide_dbl(data, 
    ~ mean(.$Count, na.rm = TRUE), .size = 3, .align = "center", .bind = TRUE
  ))
#> # A tibble: 96 x 4
#> # Groups:   Sensor [4]
#>   Sensor            YrMth data                Monthly_MA
#>   <chr>             <mth> <list>                   <dbl>
#> 1 Birrarung Marr 2015 Jan <tsibble [744 × 4]>        NA 
#> 2 Birrarung Marr 2015 Feb <tsibble [672 × 4]>       634.
#> 3 Birrarung Marr 2015 Mar <tsibble [744 × 4]>       546.
#> 4 Birrarung Marr 2015 Apr <tsibble [721 × 4]>       554.
#> 5 Birrarung Marr 2015 May <tsibble [744 × 4]>       397.
#> # … with 91 more rows
…
