Coerce to a tibble or data frame — as_tibble.tbl_ts • tsibble
…
# S3 method for tbl_ts
as.data.frame(x, ...)

     Arguments

      x
      A tbl_ts.

      ...
      Ignored.

    Examples

as_tibble(pedestrian)
#> # A tibble: 66,071 x 5
#>    Sensor                        Date_Time           Date        Time Count
#>    <chr>                         <dttm>              <date>     <int> <int>
#>  1 Birrarung Marr                2015-01-01 00:00:00 2015-01-01     0  1630
#>  2 QV Market-Elizabeth St (West) 2015-01-01 00:00:00 2015-01-01     0   490
#>  3 Southern Cross Station        2015-01-01 00:00:00 2015-01-01     0   746
#>  4 QV Market-Elizabeth St (West) 2015-01-01 01:00:00 2015-01-01     1   397
#>  5 Birrarung Marr                2015-01-01 01:00:00 2015-01-01     1   826
#>  6 Southern Cross Station        2015-01-01 01:00:00 2015-01-01     1   312
#>  7 QV Market-Elizabeth St (West) 2015-01-01 02:00:00 2015-01-01     2   247
#>  8 Southern Cross Station        2015-01-01 02:00:00 2015-01-01     2   180
#>  9 Birrarung Marr                2015-01-01 02:00:00 2015-01-01     2   567
#> 10 Southern Cross Station        2015-01-01 03:00:00 2015-01-01     3   133
#> # ... with 66,061 more rows

# a grouped tbl_ts -----
grped_ped <- pedestrian %>% group_by(Sensor)
as_tibble(grped_ped)
#> # A tibble: 66,071 x 5
#> # Groups:   Sensor [4]
#>    Sensor                        Date_Time           Date        Time Count
#>    <chr>                         <dttm>              <date>     <int> <int>
#>  1 Birrarung Marr                2015-01-01 00:00:00 2015-01-01     0  1630
#>  2 QV Market-Elizabeth St (West) 2015-01-01 00:00:00 2015-01-01     0   490
#>  3 Southern Cross Station        2015-01-01 00:00:00 2015-01-01     0   746
#>  4 QV Market-Elizabeth St (West) 2015-01-01 01:00:00 2015-01-01     1   397
#>  5 Birrarung Marr                2015-01-01 01:00:00 2015-01-01     1   826
#>  6 Southern Cross Station        2015-01-01 01:00:00 2015-01-01     1   312
#>  7 QV Market-Elizabeth St (West) 2015-01-01 02:00:00 2015-01-01     2   247
#>  8 Southern Cross Station        2015-01-01 02:00:00 2015-01-01     2   180
#>  9 Birrarung Marr                2015-01-01 02:00:00 2015-01-01     2   567
#> 10 Southern Cross Station        2015-01-01 03:00:00 2015-01-01     3   133
#> # ... with 66,061 more rows
…
