Gather columns into key-value pairs. — gather.tbl_ts • tsibble
…
    tidyr::gather

    Examples

# example from tidyr
stocks <- tsibble(
  time = as.Date('2009-01-01') + 0:9,
  X = rnorm(10, 0, 1),
  Y = rnorm(10, 0, 2),
  Z = rnorm(10, 0, 4)
)
#> The `index` is `time`.
stocks %>% gather(stock, price, -time)
#> # A tsibble: 30 x 3 [1DAY]
#> # Keys:      stock [3]
#>    time       stock  price
#>    <date>     <chr>  <dbl>
#>  1 2009-01-01 X     -0.384
#>  2 2009-01-02 X      1.83 
#>  3 2009-01-03 X     -0.551
#>  4 2009-01-04 X     -0.866
#>  5 2009-01-05 X     -0.344
#>  6 2009-01-06 X      1.06 
#>  7 2009-01-07 X      0.813
#>  8 2009-01-08 X      1.80 
#>  9 2009-01-09 X     -0.105
#> 10 2009-01-10 X      0.982
#> # ... with 20 more rows
…
