Group by one or more variables — group_by.tbl_ts • tsibble
…
    See also

    dplyr::group_by

dplyr::ungroup

    Examples

data(tourism)
tourism %>%
  group_by(Region, State) %>%
  summarise(geo_trips = sum(Trips))
#> # A tsibble: 5,852 x 4 [1QUARTER]
#> # Keys:      Region | State [77]
#> # Groups:    Region [77]
#>    Region   State           Quarter geo_trips
#>    <chr>    <chr>             <qtr>     <dbl>
#>  1 Adelaide South Australia 1998 Q1      659.
#>  2 Adelaide South Australia 1998 Q2      450.
#>  3 Adelaide South Australia 1998 Q3      593.
#>  4 Adelaide South Australia 1998 Q4      524.
#>  5 Adelaide South Australia 1999 Q1      548.
#>  6 Adelaide South Australia 1999 Q2      569.
#>  7 Adelaide South Australia 1999 Q3      538.
#>  8 Adelaide South Australia 1999 Q4      562.
#>  9 Adelaide South Australia 2000 Q1      646.
#> 10 Adelaide South Australia 2000 Q2      563.
#> # ... with 5,842 more rows
…
