Sliding window calculation over multiple inputs simultaneously — slide2 • tsibble
…
#> 9      b          NA 8 15.7967910 2016-06-01
#> 10     b  2.17481960 7 13.6219714 2016-06-02
#> 11     b -0.11413960 6 13.7361110 2016-06-03
#> 12     b  4.58135886 5  9.1547522 2016-06-04
#> 13     b  2.11632368 4  7.0384285 2016-06-05
#> 14     b  0.02093745 3  7.0174911 2016-06-06
#> 15     b  4.51354479 2  2.5039463 2016-06-07
#> 16     b  1.68876499 1  0.8151813 2016-06-08
## window over 2 months
pedestrian %>%
  filter(Sensor == "Southern Cross Station") %>%
  index_by(yrmth = yearmonth(Date_Time)) %>%
  nest(-yrmth) %>%
  mutate(ma = slide_dbl(data, ~ mean(do.call(rbind, .)$Count), .size = 2))
#> # A tibble: 24 x 3
#>       yrmth data                   ma
#>  *    <mth> <list>              <dbl>
#>  1 2015 Jan <tsibble [744 × 5]>   NA 
#>  2 2015 Feb <tsibble [672 × 5]>  424.
#>  3 2015 Mar <tsibble [744 × 5]>  477.
#>  4 2015 Apr <tsibble [720 × 5]>  459.
#>  5 2015 May <tsibble [744 × 5]>  463.
#>  6 2015 Jun <tsibble [720 × 5]>  489.
#>  7 2015 Jul <tsibble [744 × 5]>  513.
#>  8 2015 Aug <tsibble [744 × 5]>  508.
#>  9 2015 Sep <tsibble [720 × 5]>  500.
#> 10 2015 Oct <tsibble [743 × 5]>  508.
#> # ... with 14 more rows
…
