Stretching window calculation over multiple simultaneously — stretch2 • tsibble
…
###
# row-wise stretching over data frame
###

x <- as.Date("2017-01-01") + 0:364
df <- data.frame(x = x, y = seq_along(x))

tibble(
  data = pstretch(df, function(...) as_tibble(list(...)), .init = 10)
)
#> # A tibble: 356 x 1
#>    data             
#>    <list>           
#>  1 <tibble [10 × 2]>
#>  2 <tibble [11 × 2]>
#>  3 <tibble [12 × 2]>
#>  4 <tibble [13 × 2]>
#>  5 <tibble [14 × 2]>
#>  6 <tibble [15 × 2]>
#>  7 <tibble [16 × 2]>
#>  8 <tibble [17 × 2]>
#>  9 <tibble [18 × 2]>
#> 10 <tibble [19 × 2]>
#> # … with 346 more rows
…
