Stretching window calculation — stretch • tsibble
…
# stretching a 2-day window for a data frame ----
sx <- pedestrian %>%
  filter(Sensor == "Southern Cross Station", Date <= as.Date("2015-01-10"))
sx %>%
  stretch_dfr(~ quantile(.$Count), init = 48)
#> # A tibble: 193 x 5
#>     `0%` `25%` `50%` `75%` `100%`
#>    <dbl> <dbl> <dbl> <dbl>  <dbl>
#>  1     6  38.8 102.   229.    746
#>  2     6  38    98    215     746
#>  3     6  36.5  98    206.    746
#>  4     6  36    98    198.    746
#>  5     6  33.5  96.5  189.    746
#>  6     6  26    95    180     746
#>  7     6  24.5  94    176     746
#>  8     6  22.5  93    172     746
#>  9     6  23.2  90    168     746
#> 10     6  24    87    164     746
#> # ... with 183 more rows
…
