Tidyverse methods for tsibble — tidyverse • tsibble
…
      .direction
      Direction in which to fill missing values. Currently
either "down" (the default) or "up".

    Examples

# Sum over sensors ----
pedestrian %>%
  summarise(Total = sum(Count))
#> # A tsibble: 17,542 x 2 [1h] <Australia/Melbourne>
#>    Date_Time           Total
#>    <dttm>              <int>
#>  1 2015-01-01 00:00:00  2866
#>  2 2015-01-01 01:00:00  1535
#>  3 2015-01-01 02:00:00   994
#>  4 2015-01-01 03:00:00   569
#>  5 2015-01-01 04:00:00   311
#>  6 2015-01-01 05:00:00   159
#>  7 2015-01-01 06:00:00   129
#>  8 2015-01-01 07:00:00   146
#>  9 2015-01-01 08:00:00   258
#> 10 2015-01-01 09:00:00   419
#> # … with 17,532 more rows
…
  summarise(Total = sum(Count))
#> # A tibble: 1 x 1
#>      Total
#>      <int>
#> 1 45483871
# example from tidyr
stocks <- tsibble(
  time = as.Date('2009-01-01') + 0:9,
  X = rnorm(10, 0, 1),
  Y = rnorm(10, 0, 2),
  Z = rnorm(10, 0, 4)
)
#> Column `time` is the index.
stocks %>% gather(stock, price, -time)
#> # A tsibble: 30 x 3 [1D]
#> # Key:       stock [3]
#>    time       stock  price
#>    <date>     <chr>  <dbl>
#>  1 2009-01-01 X      0.168
#>  2 2009-01-02 X      1.18 
#>  3 2009-01-03 X      1.53 
#>  4 2009-01-04 X     -0.565
#>  5 2009-01-05 X      0.296
#>  6 2009-01-06 X     -0.249
#>  7 2009-01-07 X     -0.207
#>  8 2009-01-08 X      0.822
#>  9 2009-01-09 X      0.704
#> 10 2009-01-10 X     -0.158
#> # … with 20 more rows
…
#> 10 2009-01-10  0.391 -2.45   3.57 
nested_stock <- stocksm %>%
  nest(-stock)
stocksm %>%
  group_by(stock) %>%
  nest()
#> # A tibble: 3 x 2
#>   stock data              
#>   <chr> <list>            
#> 1 X     <tsibble [10 × 2]>
#> 2 Y     <tsibble [10 × 2]>
#> 3 Z     <tsibble [10 × 2]>
nested_stock %>%
  unnest(key = id(stock))
#> # A tsibble: 30 x 3 [1D]
#> # Key:       stock [3]
#>    stock time        price
#>    <chr> <date>      <dbl>
#>  1 X     2009-01-01  0.642
#>  2 X     2009-01-02 -0.417
#>  3 X     2009-01-03 -1.22 
#>  4 X     2009-01-04  2.13 
#>  5 X     2009-01-05 -1.09 
#>  6 X     2009-01-06  0.116
#>  7 X     2009-01-07  1.26 
#>  8 X     2009-01-08  1.04 
#>  9 X     2009-01-09 -0.969
#> 10 X     2009-01-10  0.391
#> # … with 20 more rows
stock_qtl <- stocksm %>%
  group_by(stock) %>%
  index_by(day3 = lubridate::floor_date(time, unit = "3 day")) %>%
  summarise(
    value = list(quantile(price)),
    qtl = list(c("0%", "25%", "50%", "75%", "100%"))
  )
unnest(stock_qtl, key = id(qtl))
#> # A tsibble: 60 x 4 [3D]
#> # Key:       stock, qtl [15]
#>    stock day3        value qtl  
#>    <chr> <date>      <dbl> <chr>
#>  1 X     2009-01-01 -1.22  0%   
#>  2 X     2009-01-01 -0.817 25%  
#>  3 X     2009-01-01 -0.417 50%  
#>  4 X     2009-01-01  0.112 75%  
#>  5 X     2009-01-01  0.642 100% 
#>  6 X     2009-01-04 -1.09  0%   
#>  7 X     2009-01-04 -0.486 25%  
#>  8 X     2009-01-04  0.116 50%  
#>  9 X     2009-01-04  1.12  75%  
#> 10 X     2009-01-04  2.13  100% 
#> # … with 50 more rows
…
