Australian domestic overnight trips — tourism • tsibble
…
    References

    Tourism Research Australia

    Examples

data(tourism)
# nesting and crossed structure
key(tourism)
#> Region | State, Purpose
# Total trips over geographical regions
tourism %>%
  group_by(Region, State) %>%
  summarise(Total_Trips = sum(Trips))
#> # A tsibble: 5,852 x 4 [1QUARTER]
#> # Key:       Region | State [77]
#> # Groups:    Region [77]
#>    Region   State           Quarter Total_Trips
#>    <chr>    <chr>             <qtr>       <dbl>
#>  1 Adelaide South Australia 1998 Q1        659.
#>  2 Adelaide South Australia 1998 Q2        450.
#>  3 Adelaide South Australia 1998 Q3        593.
#>  4 Adelaide South Australia 1998 Q4        524.
#>  5 Adelaide South Australia 1999 Q1        548.
#>  6 Adelaide South Australia 1999 Q2        569.
#>  7 Adelaide South Australia 1999 Q3        538.
#>  8 Adelaide South Australia 1999 Q4        562.
#>  9 Adelaide South Australia 2000 Q1        646.
#> 10 Adelaide South Australia 2000 Q2        563.
#> # ... with 5,842 more rows
…
