tsibble: tidy temporal data frames and tools — tsibble-package • tsibble
…
# create a tsibble with one key ----
tsbl2 <- tsibble(
  qtr = rep(yearquarter(seq(2010, 2012.25, by = 1 / 4)), 3),
  group = rep(c("x", "y", "z"), each = 10),
  value = rnorm(30),
  key = id(group), index = qtr
)
tsbl2
#> # A tsibble: 30 x 3 [1Q]
#> # Key:       group [3]
#>        qtr group  value
#>  *   <qtr> <chr>  <dbl>
#>  1 2010 Q1 x      1.02 
#>  2 2010 Q2 x     -0.264
#>  3 2010 Q3 x      1.66 
#>  4 2010 Q4 x     -0.774
#>  5 2011 Q1 x     -0.924
#>  6 2011 Q2 x     -0.276
#>  7 2011 Q3 x     -0.593
#>  8 2011 Q4 x     -0.122
#>  9 2012 Q1 x      1.18 
#> 10 2012 Q2 x      0.641
#> # ... with 20 more rows
…
