Create a tsibble object — tsibble • tsibble
…
# create a tsibble with one key ----
tsbl2 <- tsibble(
  qtr = rep(yearquarter(seq(2010, 2012.25, by = 1 / 4)), 3),
  group = rep(c("x", "y", "z"), each = 10),
  value = rnorm(30),
  key = id(group), index = qtr
)
tsbl2
#> # A tsibble: 30 x 3 [1Q]
#> # Key:       group [3]
#>        qtr group   value
#>  *   <qtr> <chr>   <dbl>
#>  1 2010 Q1 x     -0.712 
#>  2 2010 Q2 x      0.662 
#>  3 2010 Q3 x      0.291 
#>  4 2010 Q4 x      0.198 
#>  5 2011 Q1 x     -1.20  
#>  6 2011 Q2 x     -0.0398
#>  7 2011 Q3 x      0.687 
#>  8 2011 Q4 x      0.705 
#>  9 2012 Q1 x      0.991 
#> 10 2012 Q2 x      1.14  
#> # ... with 20 more rows
…
