…
``` r
library(dplyr)
library(lubridate)
library(tsibble)
weather <- nycflights13::weather %>% 
  select(origin, time_hour, temp, humid, precip)
weather
#> # A tibble: 26,115 × 5
#>   origin time_hour            temp humid precip
#>   <chr>  <dttm>              <dbl> <dbl>  <dbl>
#> 1 EWR    2013-01-01 01:00:00  39.0  59.4      0
#> 2 EWR    2013-01-01 02:00:00  39.0  61.6      0
#> 3 EWR    2013-01-01 03:00:00  39.0  64.4      0
#> 4 EWR    2013-01-01 04:00:00  39.9  62.2      0
#> 5 EWR    2013-01-01 05:00:00  39.0  64.4      0
#> # ℹ 26,110 more rows
```
…
Except for index, a tsibble requires “key”, which defines subjects or
individuals measured over time. In this example, the `origin` variable
is the identifier, which is passed to the argument `key` in
[`as_tsibble()`](https://tsibble.tidyverts.org/reference/as-tsibble.md).
**Each observation should be uniquely identified by index and key** in a
valid tsibble. Others—`temp`, `humid` and `precip`—are referred to as
measured variables. When creating a tsibble, the key will be sorted
first, followed by arranging time from past to recent.

``` r
weather_tsbl <- as_tsibble(weather, key = origin)
#> Using `time_hour` as index variable.
weather_tsbl
#> # A tsibble: 26,115 x 5 [1h] <America/New_York>
#> # Key:       origin [3]
#>   origin time_hour            temp humid precip
#>   <chr>  <dttm>              <dbl> <dbl>  <dbl>
#> 1 EWR    2013-01-01 01:00:00  39.0  59.4      0
#> 2 EWR    2013-01-01 02:00:00  39.0  61.6      0
#> 3 EWR    2013-01-01 03:00:00  39.0  64.4      0
#> 4 EWR    2013-01-01 04:00:00  39.9  62.2      0
#> 5 EWR    2013-01-01 05:00:00  39.0  64.4      0
#> # ℹ 26,110 more rows
```
…
``` r
weather_tsbl %>%
  group_by_key() %>%
  index_by(date = ~ as_date(.)) %>% 
  summarise(
    temp_high = max(temp, na.rm = TRUE),
    temp_low = min(temp, na.rm = TRUE)
  )
#> # A tsibble: 1,092 x 4 [1D]
#> # Key:       origin [3]
#>   origin date       temp_high temp_low
#>   <chr>  <date>         <dbl>    <dbl>
#> 1 EWR    2013-01-01      41       28.0
#> 2 EWR    2013-01-02      34.0     24.1
#> 3 EWR    2013-01-03      34.0     26.1
#> 4 EWR    2013-01-04      39.9     28.9
#> 5 EWR    2013-01-05      44.1     32  
#> # ℹ 1,087 more rows
```
…
The key contains columns `carrier` and `flight` to identify
observational units over time, from a passenger’s point of view. With
`regular = FALSE`, it turns to an irregularly-spaced tsibble, where
`[!]` highlights the irregularity.

``` r
flights_tsbl <- flights %>%
  as_tsibble(
    key = c(carrier, flight), 
    index = sched_dep_datetime, 
    regular = FALSE
  )
flights_tsbl
#> # A tsibble: 336,776 x 20 [!] <America/New_York>
#> # Key:       carrier, flight [5,725]
#>    year month   day dep_time sched_dep_time dep_delay arr_time sched_arr_time
#>   <int> <int> <int>    <int>          <int>     <dbl>    <int>          <int>
#> 1  2013    11     3     1531           1540        -9     1653           1725
#> 2  2013    11     4     1539           1540        -1     1712           1725
#> 3  2013    11     5     1548           1540         8     1708           1725
#> 4  2013    11     6     1535           1540        -5     1657           1725
#> 5  2013    11     7     1549           1540         9     1733           1725
#> # ℹ 336,771 more rows
#> # ℹ 12 more variables: arr_delay <dbl>, carrier <chr>, flight <int>,
#> #   tailnum <chr>, origin <chr>, dest <chr>, air_time <dbl>, distance <dbl>,
#> #   hour <dbl>, minute <dbl>, time_hour <dttm>, sched_dep_datetime <dttm>
```
…
